<?xml version="1.0" encoding="UTF-8" standalone="no"?>
<svg
   xmlns:dc="http://purl.org/dc/elements/1.1/"
   xmlns:cc="http://creativecommons.org/ns#"
   xmlns:rdf="http://www.w3.org/1999/02/22-rdf-syntax-ns#"
   xmlns:svg="http://www.w3.org/2000/svg"
   xmlns="http://www.w3.org/2000/svg"
   xmlns:sodipodi="http://sodipodi.sourceforge.net/DTD/sodipodi-0.dtd"
   xmlns:inkscape="http://www.inkscape.org/namespaces/inkscape"
   version="1.1"
   id="Calque_1"
   x="0px"
   y="0px"
   viewBox="0 0 680 350"
   xml:space="preserve"
   sodipodi:docname="xivo_logo.svg"
   width="680"
   height="350"
   inkscape:version="1.0.2 (e86c870879, 2021-01-15)"><metadata
   id="metadata35"><rdf:RDF><cc:Work
       rdf:about=""><dc:format>image/svg+xml</dc:format><dc:type
         rdf:resource="http://purl.org/dc/dcmitype/StillImage" /><dc:title></dc:title></cc:Work></rdf:RDF></metadata><defs
   id="defs33" /><sodipodi:namedview
   pagecolor="#ffffff"
   bordercolor="#666666"
   borderopacity="1"
   objecttolerance="10"
   gridtolerance="10"
   guidetolerance="10"
   inkscape:pageopacity="0"
   inkscape:pageshadow="2"
   inkscape:window-width="1838"
   inkscape:window-height="963"
   id="namedview31"
   showgrid="false"
   inkscape:zoom="1.1313709"
   inkscape:cx="325.93967"
   inkscape:cy="190.78585"
   inkscape:window-x="26"
   inkscape:window-y="23"
   inkscape:window-maximized="0"
   inkscape:current-layer="Calque_1" />
<style
   type="text/css"
   id="style2">
	.st0{fill:#1D1D1B;}
	.st1{fill:#FF5722;}
</style>
<g
   id="g28"
   transform="translate(5.437955,-89.976576)">
	<g
   id="g24">
		<g
   id="g20">
			<path
   class="st0"
   d="m 429.76,319.3 h 8.19 c 2.09,0 3.73,0.57 4.77,1.61 0.81,0.81 1.23,1.8 1.23,3.02 v 0.05 c 0,2.19 -1.25,3.36 -2.61,4.06 2.14,0.73 3.62,1.96 3.62,4.44 v 0.05 c 0,3.26 -2.68,5.01 -6.75,5.01 h -8.45 z m 7.53,7.69 c 2.06,0 3.44,-0.81 3.44,-2.48 v -0.05 c 0,-1.44 -1.15,-2.32 -3.21,-2.32 h -4.61 v 4.85 z m 0.94,7.72 c 2.19,0 3.52,-0.86 3.52,-2.5 v -0.05 c 0,-1.54 -1.23,-2.45 -3.75,-2.45 h -5.08 v 5.01 h 5.31 z"
   id="path4" />
			<path
   class="st0"
   d="m 454.2,330.36 -7.25,-11.06 h 3.78 l 5.11,8.08 5.16,-8.08 h 3.68 l -7.25,10.98 v 7.28 h -3.23 z"
   id="path6" />
			<path
   class="st0"
   d="m 475.99,319.3 h 3.47 l 4.35,13.53 4.49,-13.59 h 2.71 l 4.48,13.59 4.36,-13.53 h 3.36 l -6.36,18.38 h -2.76 l -4.48,-13.12 -4.48,13.12 h -2.77 z"
   id="path8" />
			<path
   class="st0"
   d="m 507.68,319.3 h 3.21 v 18.25 h -3.21 z"
   id="path10" />
			<path
   class="st0"
   d="m 515.57,334.89 1.93,-2.29 c 1.75,1.51 3.49,2.37 5.76,2.37 1.98,0 3.23,-0.91 3.23,-2.29 v -0.05 c 0,-1.31 -0.73,-2.01 -4.12,-2.79 -3.88,-0.94 -6.08,-2.09 -6.08,-5.45 v -0.05 c 0,-3.13 2.61,-5.29 6.23,-5.29 2.66,0 4.77,0.81 6.62,2.29 l -1.72,2.43 c -1.64,-1.23 -3.28,-1.88 -4.95,-1.88 -1.88,0 -2.97,0.96 -2.97,2.16 v 0.05 c 0,1.41 0.83,2.04 4.33,2.87 3.86,0.94 5.87,2.32 5.87,5.34 v 0.05 c 0,3.41 -2.68,5.45 -6.52,5.45 -2.78,0 -5.42,-0.97 -7.61,-2.92 z"
   id="path12" />
			<path
   class="st0"
   d="m 534.5,319.3 h 7.2 c 4.25,0 6.94,2.43 6.94,6.1 v 0.05 c 0,4.09 -3.28,6.23 -7.3,6.23 h -3.62 v 5.87 h -3.21 V 319.3 Z m 6.93,9.49 c 2.43,0 3.94,-1.36 3.94,-3.26 v -0.05 c 0,-2.14 -1.54,-3.26 -3.94,-3.26 h -3.73 v 6.57 z"
   id="path14" />
			<path
   class="st0"
   d="m 552.92,319.3 h 13.53 v 2.87 h -10.33 v 4.74 h 9.15 v 2.87 h -9.15 v 4.9 h 10.46 v 2.87 h -13.66 z"
   id="path16" />
			<path
   class="st0"
   d="m 571.4,319.3 h 8.14 c 2.29,0 4.09,0.68 5.27,1.83 0.96,0.99 1.51,2.35 1.51,3.94 v 0.05 c 0,3 -1.8,4.8 -4.36,5.53 l 4.93,6.91 h -3.78 l -4.48,-6.36 h -4.02 v 6.36 h -3.21 z m 7.9,9.04 c 2.29,0 3.76,-1.2 3.76,-3.05 v -0.05 c 0,-1.96 -1.41,-3.02 -3.78,-3.02 h -4.67 v 6.13 h 4.69 z"
   id="path18" />
		</g>
		<path
   class="st0"
   d="m 592.94,275.73 c -13.26,0 -22.7,-10.69 -22.7,-23.66 v -0.19 c 0,-12.97 9.25,-23.56 22.51,-23.56 13.26,0 22.7,10.78 22.7,23.75 v 0.19 c 0,12.98 -9.25,23.47 -22.51,23.47 m -0.19,10.87 c 20.51,0 35.01,-15.74 35.01,-34.53 v -0.19 c 0,-18.79 -14.31,-34.34 -34.81,-34.34 -20.51,0 -35.01,15.74 -35.01,34.53 v 0.19 c 0,18.79 14.3,34.34 34.81,34.34 m -77.17,-0.67 h 10.4 l 27.66,-67.25 H 540.95 L 520.92,270 500.79,218.68 h -12.97 z m -51.6,-0.47 h 11.73 v -66.77 h -11.73 z m -27.18,-66.77 -16.69,24.23 -16.6,-24.23 h -13.83 l 23.18,32.81 -24.13,33.96 h 13.45 l 17.55,-25.47 17.65,25.47 h 13.83 l -24.23,-34.15 23.27,-32.62 z"
   id="path22" />
	</g>
	<path
   class="st1"
   d="m 276.41,302.34 c -10.16,0 -19.49,3.43 -26.98,9.15 l -17.6,-17.6 v -72.42 l 17.51,-17.51 c 7.51,5.76 16.88,9.22 27.07,9.22 24.62,0 44.59,-19.96 44.59,-44.59 0,-24.63 -19.96,-44.59 -44.59,-44.59 -24.62,0 -44.59,19.96 -44.59,44.59 0,10.2 3.46,19.56 9.22,27.07 l -17.43,17.44 h -72.58 l -17.52,-17.52 c 5.72,-7.5 9.15,-16.83 9.15,-26.98 0,-24.62 -19.96,-44.59 -44.59,-44.59 -24.63,0 -44.59,19.96 -44.59,44.59 0,24.63 19.96,44.59 44.59,44.59 10.15,0 19.49,-3.43 26.98,-9.15 l 17.6,17.6 v 72.42 l -17.51,17.51 c -7.51,-5.76 -16.88,-9.22 -27.07,-9.22 -24.62,0 -44.59,19.96 -44.59,44.59 0,24.62 19.96,44.59 44.59,44.59 24.63,0 44.59,-19.96 44.59,-44.59 0,-10.2 -3.46,-19.56 -9.22,-27.07 l 17.59,-17.59 h 72.26 l 17.68,17.68 c -5.72,7.5 -9.15,16.83 -9.15,26.98 0,24.62 19.96,44.59 44.59,44.59 24.62,0 44.59,-19.96 44.59,-44.59 0,-24.63 -19.96,-44.6 -44.59,-44.6 z"
   id="path26" />
</g>
</svg>
